Hw/4/Lab4/Lab4.sim/sim_1/behav/xsim/simulate.log
Vivado Simulator 2020.2
Time resolution is 1 ps
 x,         x,         x,x,x,         x,         0,         x,         x===========================================================
x
Register===========================================================

r0=          0, r1=          0, r2=          0, r3=          0, r4=          0, r5=          0, r6=          0, r7=          0
 
r8=          0, r9=          0, r10=          0, r11=          0, r12=          0, r13=          0, r14=          0, r15=          0
 
r16=          0, r17=          0, r18=          0, r19=          0, r20=          0, r21=          0, r22=          0, r23=          0
 
r24=          0, r25=          0, r26=          0, r27=          0, r28=          0, r29=          0, r30=          0, r31=          0
 

Memory===========================================================

m0=         0, m1=         0, m2=         0, m3=         0, m4=         0, m5=         0, m6=         0, m7=         0

m8=         0, m9=         0, m10=         0, m11=         0, m12=         0, m13=         0, m14=         0, m15=         0

r16=         0, m17=         0, m18=         0, m19=         0, m20=         0, m21=         0, m22=         0, m23=         0

m24=         0, m25=         0, m26=         0, m27=         0, m28=         0, m29=         0, m30=         0, m31=         0
 0,         0,         0,0,0,         0,         0,         0,         0===========================================================
0
Register===========================================================

r0=          0, r1=          0, r2=          0, r3=          0, r4=          0, r5=          0, r6=          0, r7=          0
 
r8=          0, r9=          0, r10=          0, r11=          0, r12=          0, r13=          0, r14=          0, r15=          0
 
r16=          0, r17=          0, r18=          0, r19=          0, r20=          0, r21=          0, r22=          0, r23=          0
 
r24=          0, r25=          0, r26=          0, r27=          0, r28=          0, r29=          0, r30=          0, r31=          0
 

Memory===========================================================

m0=         0, m1=         0, m2=         0, m3=         0, m4=         0, m5=         0, m6=         0, m7=         0

m8=         0, m9=         0, m10=         0, m11=         0, m12=         0, m13=         0, m14=         0, m15=         0

r16=         0, m17=         0, m18=         0, m19=         0, m20=         0, m21=         0, m22=         0, m23=         0

m24=         0, m25=         0, m26=         0, m27=         0, m28=         0, m29=         0, m30=         0, m31=         0
 0,         0,         4,0,0,         0,         0,         0,         0===========================================================
0
Register===========================================================

r0=          0, r1=          0, r2=          0, r3=          0, r4=          0, r5=          0, r6=          0, r7=          0
 
r8=          0, r9=          0, r10=          0, r11=          0, r12=          0, r13=          0, r14=          0, r15=          0
 
r16=          0, r17=          0, r18=          0, r19=          0, r20=          0, r21=          0, r22=          0, r23=          0
 
r24=          0, r25=          0, r26=          0, r27=          0, r28=          0, r29=          0, r30=          0, r31=          0
 

Memory===========================================================

m0=         0, m1=         0, m2=         0, m3=         0, m4=         0, m5=         0, m6=         0, m7=         0

m8=         0, m9=         0, m10=         0, m11=         0, m12=         0, m13=         0, m14=         0, m15=         0

r16=         0, m17=         0, m18=         0, m19=         0, m20=         0, m21=         0, m22=         0, m23=         0

m24=         0, m25=         0, m26=         0, m27=         0, m28=         0, m29=         0, m30=         0, m31=         0
 2,         0,         8,0,0,         0,         3,         3,         3===========================================================
1
Register===========================================================

r0=          0, r1=          0, r2=          0, r3=          0, r4=          0, r5=          0, r6=          0, r7=          0
 
r8=          0, r9=          0, r10=          0, r11=          0, r12=          0, r13=          0, r14=          0, r15=          0
 
r16=          0, r17=          0, r18=          0, r19=          0, r20=          0, r21=          0, r22=          0, r23=          0
 
r24=          0, r25=          0, r26=          0, r27=          0, r28=          0, r29=          0, r30=          0, r31=          0
 

Memory===========================================================

m0=         0, m1=         0, m2=         0, m3=         0, m4=         0, m5=         0, m6=         0, m7=         0

m8=         0, m9=         0, m10=         0, m11=         0, m12=         0, m13=         0, m14=         0, m15=         0

r16=         0, m17=         0, m18=         0, m19=         0, m20=         0, m21=         0, m22=         0, m23=         0

m24=         0, m25=         0, m26=         0, m27=         0, m28=         0, m29=         0, m30=         0, m31=         0
 2,         0,        12,0,0,         3,         4,         4,         4===========================================================
1
Register===========================================================

r0=          0, r1=          0, r2=          0, r3=          0, r4=          0, r5=          0, r6=          0, r7=          0
 
r8=          0, r9=          0, r10=          0, r11=          0, r12=          0, r13=          0, r14=          0, r15=          0
 
r16=          0, r17=          0, r18=          0, r19=          0, r20=          0, r21=          0, r22=          0, r23=          0
 
r24=          0, r25=          0, r26=          0, r27=          0, r28=          0, r29=          0, r30=          0, r31=          0
 

Memory===========================================================

m0=         0, m1=         0, m2=         0, m3=         0, m4=         0, m5=         0, m6=         0, m7=         0

m8=         0, m9=         0, m10=         0, m11=         0, m12=         0, m13=         0, m14=         0, m15=         0

r16=         0, m17=         0, m18=         0, m19=         0, m20=         0, m21=         0, m22=         0, m23=         0

m24=         0, m25=         0, m26=         0, m27=         0, m28=         0, m29=         0, m30=         0, m31=         0
 2,         0,        16,1,0,         4,         1,         1,         1===========================================================
1
Register===========================================================

r0=          0, r1=          3, r2=          0, r3=          0, r4=          0, r5=          0, r6=          0, r7=          0
 
r8=          0, r9=          0, r10=          0, r11=          0, r12=          0, r13=          0, r14=          0, r15=          0
 
r16=          0, r17=          0, r18=          0, r19=          0, r20=          0, r21=          0, r22=          0, r23=          0
 
r24=          0, r25=          0, r26=          0, r27=          0, r28=          0, r29=          0, r30=          0, r31=          0
 

Memory===========================================================

m0=         0, m1=         0, m2=         0, m3=         0, m4=         0, m5=         0, m6=         0, m7=         0

m8=         0, m9=         0, m10=         0, m11=         0, m12=         0, m13=         0, m14=         0, m15=         0

r16=         0, m17=         0, m18=         0, m19=         0, m20=         0, m21=         0, m22=         0, m23=         0

m24=         0, m25=         0, m26=         0, m27=         0, m28=         0, m29=         0, m30=         0, m31=         0
 2,         0,        20,0,0,         1,         4,         4,         4===========================================================
1
Register===========================================================

r0=          0, r1=          3, r2=          4, r3=          0, r4=          0, r5=          0, r6=          0, r7=          0
 
r8=          0, r9=          0, r10=          0, r11=          0, r12=          0, r13=          0, r14=          0, r15=          0
 
r16=          0, r17=          0, r18=          0, r19=          0, r20=          0, r21=          0, r22=          0, r23=          0
 
r24=          0, r25=          0, r26=          0, r27=          0, r28=          0, r29=          0, r30=          0, r31=          0
 

Memory===========================================================

m0=         0, m1=         0, m2=         0, m3=         0, m4=         0, m5=         0, m6=         0, m7=         0

m8=         0, m9=         0, m10=         0, m11=         0, m12=         0, m13=         0, m14=         0, m15=         0

r16=         0, m17=         0, m18=         0, m19=         0, m20=         0, m21=         0, m22=         0, m23=         0

m24=         0, m25=         0, m26=         0, m27=         0, m28=         0, m29=         0, m30=         0, m31=         0
 2,         3,        24,0,1,         4,         6,         3,      8224===========================================================
0
Register===========================================================

r0=          0, r1=          3, r2=          4, r3=          1, r4=          0, r5=          0, r6=          0, r7=          0
 
r8=          0, r9=          0, r10=          0, r11=          0, r12=          0, r13=          0, r14=          0, r15=          0
 
r16=          0, r17=          0, r18=          0, r19=          0, r20=          0, r21=          0, r22=          0, r23=          0
 
r24=          0, r25=          0, r26=          0, r27=          0, r28=          0, r29=          0, r30=          0, r31=          0
 

Memory===========================================================

m0=         0, m1=         0, m2=         0, m3=         0, m4=         0, m5=         0, m6=         0, m7=         0

m8=         0, m9=         0, m10=         0, m11=         0, m12=         0, m13=         0, m14=         0, m15=         0

r16=         0, m17=         0, m18=         0, m19=         0, m20=         0, m21=         0, m22=         0, m23=         0

m24=         0, m25=         0, m26=         0, m27=         0, m28=         0, m29=         0, m30=         0, m31=         0
 1,         3,        28,0,0,         6,         7,         4,     12325===========================================================
0
Register===========================================================

r0=          0, r1=          3, r2=          4, r3=          1, r4=          0, r5=          0, r6=          0, r7=          0
 
r8=          0, r9=          0, r10=          0, r11=          0, r12=          0, r13=          0, r14=          0, r15=          0
 
r16=          0, r17=          0, r18=          0, r19=          0, r20=          0, r21=          0, r22=          0, r23=          0
 
r24=          0, r25=          0, r26=          0, r27=          0, r28=          0, r29=          0, r30=          0, r31=          0
 

Memory===========================================================

m0=         0, m1=         3, m2=         0, m3=         0, m4=         0, m5=         0, m6=         0, m7=         0

m8=         0, m9=         0, m10=         0, m11=         0, m12=         0, m13=         0, m14=         0, m15=         0

r16=         0, m17=         0, m18=         0, m19=         0, m20=         0, m21=         0, m22=         0, m23=         0

m24=         0, m25=         0, m26=         0, m27=         0, m28=         0, m29=         0, m30=         0, m31=         0
 0,         3,        32,0,0,         7,         1,         1,     14372===========================================================
0
Register===========================================================

r0=          0, r1=          3, r2=          4, r3=          1, r4=          6, r5=          0, r6=          0, r7=          0
 
r8=          0, r9=          0, r10=          0, r11=          0, r12=          0, r13=          0, r14=          0, r15=          0
 
r16=          0, r17=          0, r18=          0, r19=          0, r20=          0, r21=          0, r22=          0, r23=          0
 
r24=          0, r25=          0, r26=          0, r27=          0, r28=          0, r29=          0, r30=          0, r31=          0
 

Memory===========================================================

m0=         0, m1=         3, m2=         0, m3=         0, m4=         0, m5=         0, m6=         0, m7=         0

m8=         0, m9=         0, m10=         0, m11=         0, m12=         0, m13=         0, m14=         0, m15=         0

r16=         0, m17=         0, m18=         0, m19=         0, m20=         0, m21=         0, m22=         0, m23=         0

m24=         0, m25=         0, m26=         0, m27=         0, m28=         0, m29=         0, m30=         0, m31=         0
 6,         6,        36,0,0,         1,         2,         4,     10274===========================================================
0
Register===========================================================

r0=          0, r1=          3, r2=          4, r3=          1, r4=          6, r5=          0, r6=          7, r7=          0
 
r8=          0, r9=          0, r10=          0, r11=          0, r12=          0, r13=          0, r14=          0, r15=          0
 
r16=          0, r17=          0, r18=          0, r19=          0, r20=          0, r21=          0, r22=          0, r23=          0
 
r24=          0, r25=          0, r26=          0, r27=          0, r28=          0, r29=          0, r30=          0, r31=          0
 

Memory===========================================================

m0=         0, m1=         3, m2=         0, m3=         0, m4=         0, m5=         0, m6=         0, m7=         0

m8=         0, m9=         0, m10=         0, m11=         0, m12=         0, m13=         0, m14=         0, m15=         0

r16=         0, m17=         0, m18=         0, m19=         0, m20=         0, m21=         0, m22=         0, m23=         0

m24=         0, m25=         0, m26=         0, m27=         0, m28=         0, m29=         0, m30=         0, m31=         0
 7,         3,        40,0,0,         2,         1,         4,     16426===========================================================
0
Register===========================================================

r0=          0, r1=          3, r2=          4, r3=          1, r4=          6, r5=          0, r6=          7, r7=          1
 
r8=          0, r9=          0, r10=          0, r11=          0, r12=          0, r13=          0, r14=          0, r15=          0
 
r16=          0, r17=          0, r18=          0, r19=          0, r20=          0, r21=          0, r22=          0, r23=          0
 
r24=          0, r25=          0, r26=          0, r27=          0, r28=          0, r29=          0, r30=          0, r31=          0
 

Memory===========================================================

m0=         0, m1=         3, m2=         0, m3=         0, m4=         0, m5=         0, m6=         0, m7=         0

m8=         0, m9=         0, m10=         0, m11=         0, m12=         0, m13=         0, m14=         0, m15=         0

r16=         0, m17=         0, m18=         0, m19=         0, m20=         0, m21=         0, m22=         0, m23=         0

m24=         0, m25=         0, m26=         0, m27=         0, m28=         0, m29=         0, m30=         0, m31=         0
 6,         3,        44,0,0,         1,4294967295,         4,4294967286===========================================================
0
Register===========================================================

r0=          0, r1=          3, r2=          4, r3=          1, r4=          6, r5=          2, r6=          7, r7=          1
 
r8=          0, r9=          0, r10=          0, r11=          0, r12=          0, r13=          0, r14=          0, r15=          0
 
r16=          0, r17=          0, r18=          0, r19=          0, r20=          0, r21=          0, r22=          0, r23=          0
 
r24=          0, r25=          0, r26=          0, r27=          0, r28=          0, r29=          0, r30=          0, r31=          0
 

Memory===========================================================

m0=         0, m1=         3, m2=         0, m3=         0, m4=         0, m5=         0, m6=         0, m7=         0

m8=         0, m9=         0, m10=         0, m11=         0, m12=         0, m13=         0, m14=         0, m15=         0

r16=         0, m17=         0, m18=         0, m19=         0, m20=         0, m21=         0, m22=         0, m23=         0

m24=         0, m25=         0, m26=         0, m27=         0, m28=         0, m29=         0, m30=         0, m31=         0
 2,         0,        48,0,0,4294967295,         4,         4,         4===========================================================
1
Register===========================================================

r0=          0, r1=          3, r2=          4, r3=          1, r4=          6, r5=          2, r6=          7, r7=          1
 
r8=          1, r9=          0, r10=          0, r11=          0, r12=          0, r13=          0, r14=          0, r15=          0
 
r16=          0, r17=          0, r18=          0, r19=          0, r20=          0, r21=          0, r22=          0, r23=          0
 
r24=          0, r25=          0, r26=          0, r27=          0, r28=          0, r29=          0, r30=          0, r31=          0
 

Memory===========================================================

m0=         0, m1=         3, m2=         0, m3=         0, m4=         0, m5=         0, m6=         0, m7=         0

m8=         0, m9=         0, m10=         0, m11=         0, m12=         0, m13=         0, m14=         0, m15=         0

r16=         0, m17=         0, m18=         0, m19=         0, m20=         0, m21=         0, m22=         0, m23=         0

m24=         0, m25=         0, m26=         0, m27=         0, m28=         0, m29=         0, m30=         0, m31=         0
 2,         0,        52,0,0,         4,         0,         0,         0===========================================================
0
Register===========================================================

r0=          0, r1=          3, r2=          4, r3=          1, r4=          6, r5=          2, r6=          7, r7=          1
 
r8=          1, r9=          0, r10=          0, r11=          0, r12=          0, r13=          0, r14=          0, r15=          0
 
r16=          0, r17=          0, r18=          0, r19=          0, r20=          0, r21=          0, r22=          0, r23=          0
 
r24=          0, r25=          0, r26=          0, r27=          0, r28=          0, r29=          0, r30=          0, r31=          0
 

Memory===========================================================

m0=         0, m1=         3, m2=         0, m3=         0, m4=         0, m5=         0, m6=         0, m7=         0

m8=         0, m9=         0, m10=         0, m11=         0, m12=         0, m13=         0, m14=         0, m15=         0

r16=         0, m17=         0, m18=         0, m19=         0, m20=         0, m21=         0, m22=         0, m23=         0

m24=         0, m25=         0, m26=         0, m27=         0, m28=         0, m29=         0, m30=         0, m31=         0
 2,         0,        56,0,0,         0,         0,         0,         0===========================================================
0
Register===========================================================

r0=          0, r1=          3, r2=          4, r3=          1, r4=          6, r5=          2, r6=          7, r7=          1
 
r8=          1, r9=          0, r10=          3, r11=          0, r12=          0, r13=          0, r14=          0, r15=          0
 
r16=          0, r17=          0, r18=          0, r19=          0, r20=          0, r21=          0, r22=          0, r23=          0
 
r24=          0, r25=          0, r26=          0, r27=          0, r28=          0, r29=          0, r30=          0, r31=          0
 

Memory===========================================================

m0=         0, m1=         3, m2=         0, m3=         0, m4=         0, m5=         0, m6=         0, m7=         0

m8=         0, m9=         0, m10=         0, m11=         0, m12=         0, m13=         0, m14=         0, m15=         0

r16=         0, m17=         0, m18=         0, m19=         0, m20=         0, m21=         0, m22=         0, m23=         0

m24=         0, m25=         0, m26=         0, m27=         0, m28=         0, m29=         0, m30=         0, m31=         0
 2,         0,        60,0,0,         0,         0,         0,         0===========================================================
0
Register===========================================================

r0=          0, r1=          3, r2=          4, r3=          1, r4=          6, r5=          2, r6=          7, r7=          1
 
r8=          1, r9=          0, r10=          3, r11=          0, r12=          0, r13=          0, r14=          0, r15=          0
 
r16=          0, r17=          0, r18=          0, r19=          0, r20=          0, r21=          0, r22=          0, r23=          0
 
r24=          0, r25=          0, r26=          0, r27=          0, r28=          0, r29=          0, r30=          0, r31=          0
 

Memory===========================================================

m0=         0, m1=         3, m2=         0, m3=         0, m4=         0, m5=         0, m6=         0, m7=         0

m8=         0, m9=         0, m10=         0, m11=         0, m12=         0, m13=         0, m14=         0, m15=         0

r16=         0, m17=         0, m18=         0, m19=         0, m20=         0, m21=         0, m22=         0, m23=         0

m24=         0, m25=         0, m26=         0, m27=         0, m28=         0, m29=         0, m30=         0, m31=         0
 2,         0,        64,0,0,         0,         0,         0,         0===========================================================
0
Register===========================================================

r0=          0, r1=          3, r2=          4, r3=          1, r4=          6, r5=          2, r6=          7, r7=          1
 
r8=          1, r9=          0, r10=          3, r11=          0, r12=          0, r13=          0, r14=          0, r15=          0
 
r16=          0, r17=          0, r18=          0, r19=          0, r20=          0, r21=          0, r22=          0, r23=          0
 
r24=          0, r25=          0, r26=          0, r27=          0, r28=          0, r29=          0, r30=          0, r31=          0
 

Memory===========================================================

m0=         0, m1=         3, m2=         0, m3=         0, m4=         0, m5=         0, m6=         0, m7=         0

m8=         0, m9=         0, m10=         0, m11=         0, m12=         0, m13=         0, m14=         0, m15=         0

r16=         0, m17=         0, m18=         0, m19=         0, m20=         0, m21=         0, m22=         0, m23=         0

m24=         0, m25=         0, m26=         0, m27=         0, m28=         0, m29=         0, m30=         0, m31=         0
 2,         0,        68,0,0,         0,         0,         0,         0===========================================================
0
Register===========================================================

r0=          0, r1=          3, r2=          4, r3=          1, r4=          6, r5=          2, r6=          7, r7=          1
 
r8=          1, r9=          0, r10=          3, r11=          0, r12=          0, r13=          0, r14=          0, r15=          0
 
r16=          0, r17=          0, r18=          0, r19=          0, r20=          0, r21=          0, r22=          0, r23=          0
 
r24=          0, r25=          0, r26=          0, r27=          0, r28=          0, r29=          0, r30=          0, r31=          0
 

Memory===========================================================

m0=         0, m1=         3, m2=         0, m3=         0, m4=         0, m5=         0, m6=         0, m7=         0

m8=         0, m9=         0, m10=         0, m11=         0, m12=         0, m13=         0, m14=         0, m15=         0

r16=         0, m17=         0, m18=         0, m19=         0, m20=         0, m21=         0, m22=         0, m23=         0

m24=         0, m25=         0, m26=         0, m27=         0, m28=         0, m29=         0, m30=         0, m31=         0
 2,         0,        72,0,0,         0,         0,         0,         0===========================================================
0
Register===========================================================

r0=          0, r1=          3, r2=          4, r3=          1, r4=          6, r5=          2, r6=          7, r7=          1
 
r8=          1, r9=          0, r10=          3, r11=          0, r12=          0, r13=          0, r14=          0, r15=          0
 
r16=          0, r17=          0, r18=          0, r19=          0, r20=          0, r21=          0, r22=          0, r23=          0
 
r24=          0, r25=          0, r26=          0, r27=          0, r28=          0, r29=          0, r30=          0, r31=          0
 

Memory===========================================================

m0=         0, m1=         3, m2=         0, m3=         0, m4=         0, m5=         0, m6=         0, m7=         0

m8=         0, m9=         0, m10=         0, m11=         0, m12=         0, m13=         0, m14=         0, m15=         0

r16=         0, m17=         0, m18=         0, m19=         0, m20=         0, m21=         0, m22=         0, m23=         0

m24=         0, m25=         0, m26=         0, m27=         0, m28=         0, m29=         0, m30=         0, m31=         0
 2,         0,        76,0,0,         0,         0,         0,         0===========================================================
0
Register===========================================================

r0=          0, r1=          3, r2=          4, r3=          1, r4=          6, r5=          2, r6=          7, r7=          1
 
r8=          1, r9=          0, r10=          3, r11=          0, r12=          0, r13=          0, r14=          0, r15=          0
 
r16=          0, r17=          0, r18=          0, r19=          0, r20=          0, r21=          0, r22=          0, r23=          0
 
r24=          0, r25=          0, r26=          0, r27=          0, r28=          0, r29=          0, r30=          0, r31=          0
 

Memory===========================================================

m0=         0, m1=         3, m2=         0, m3=         0, m4=         0, m5=         0, m6=         0, m7=         0

m8=         0, m9=         0, m10=         0, m11=         0, m12=         0, m13=         0, m14=         0, m15=         0

r16=         0, m17=         0, m18=         0, m19=         0, m20=         0, m21=         0, m22=         0, m23=         0

m24=         0, m25=         0, m26=         0, m27=         0, m28=         0, m29=         0, m30=         0, m31=         0
$stop called at time : 210 ns : File "D:/大學資料/大二/(資工)計算機組織概論/Hw/4/Lab4/lab4_code/TestBench.v" Line 59
